(module LOGO (layer F.Cu)
  (at 0 0)
 (fp_text reference "G***" (at 0 0) (layer F.SilkS) hide
  (effects (font (thickness 0.3)))
  )
  (fp_text value "LOGO" (at 0.75 0) (layer F.SilkS) hide
  (effects (font (thickness 0.3)))
  )
  (fp_poly (pts (xy -6.902174 -0.543462) (xy -6.839253 -0.636895) (xy -6.717868 -0.786817) (xy -6.577236 -0.905616) (xy -6.418839 -0.992499) (xy -6.244160 -1.046671) (xy -6.054684 -1.067341) (xy -6.033710 -1.067536)
     (xy -5.845882 -1.050098) (xy -5.669981 -0.999199) (xy -5.508505 -0.916962) (xy -5.363949 -0.805507) (xy -5.238810 -0.666958) (xy -5.135584 -0.503435) (xy -5.056768 -0.317062) (xy -5.026057 -0.211004)
     (xy -4.995127 -0.053496) (xy -4.972288 0.130634) (xy -4.957540 0.333203) (xy -4.950884 0.546030) (xy -4.952320 0.760931) (xy -4.961849 0.969725) (xy -4.979470 1.164227) (xy -5.005185 1.336256)
     (xy -5.025967 1.431080) (xy -5.082354 1.598124) (xy -5.162207 1.758169) (xy -5.260496 1.903718) (xy -5.372192 2.027272) (xy -5.486465 2.117654) (xy -5.633256 2.193361) (xy -5.797365 2.246346)
     (xy -5.968749 2.274872) (xy -6.137365 2.277203) (xy -6.280561 2.254936) (xy -6.445840 2.194476) (xy -6.598660 2.102204) (xy -6.732892 1.982567) (xy -6.834223 1.852900) (xy -6.892971 1.762150)
     (xy -6.898122 1.994626) (xy -6.903274 2.227102) (xy -7.288695 2.227102) (xy -7.288695 0.607392) (xy -6.902174 0.607392) (xy -6.901247 0.789889) (xy -6.897994 0.940986) (xy -6.891700 1.066057)
     (xy -6.881653 1.170477) (xy -6.867141 1.259622) (xy -6.847451 1.338866) (xy -6.821871 1.413585) (xy -6.789688 1.489154) (xy -6.783521 1.502445) (xy -6.697935 1.651510) (xy -6.595725 1.767866)
     (xy -6.475929 1.852117) (xy -6.337583 1.904867) (xy -6.179728 1.926720) (xy -6.107770 1.926843) (xy -6.022034 1.922086) (xy -5.956960 1.912038) (xy -5.896421 1.892696) (xy -5.824289 1.860061)
     (xy -5.809670 1.852882) (xy -5.699215 1.788502) (xy -5.611150 1.712576) (xy -5.537236 1.616486) (xy -5.474205 1.501945) (xy -5.439117 1.425721) (xy -5.411019 1.353541) (xy -5.389166 1.280049)
     (xy -5.372814 1.199889) (xy -5.361219 1.107703) (xy -5.353637 0.998134) (xy -5.349323 0.865827) (xy -5.347534 0.705423) (xy -5.347367 0.588986) (xy -5.348145 0.413936) (xy -5.350623 0.270348)
     (xy -5.355569 0.152886) (xy -5.363750 0.056213) (xy -5.375935 -0.025010) (xy -5.392890 -0.096119) (xy -5.415384 -0.162451) (xy -5.444183 -0.229344) (xy -5.473758 -0.289768) (xy -5.546242 -0.414542)
     (xy -5.625133 -0.510843) (xy -5.718204 -0.586981) (xy -5.793029 -0.631203) (xy -5.948652 -0.694594) (xy -6.104251 -0.721859) (xy -6.257892 -0.712972) (xy -6.407638 -0.667905) (xy -6.464021 -0.640806)
     (xy -6.589742 -0.554530) (xy -6.694307 -0.440215) (xy -6.779769 -0.295592) (xy -6.783024 -0.288709) (xy -6.816524 -0.212238) (xy -6.843275 -0.137653) (xy -6.863994 -0.059569) (xy -6.879395 0.027396)
     (xy -6.890195 0.128627) (xy -6.897110 0.249507) (xy -6.900855 0.395420) (xy -6.902147 0.571749) (xy -6.902174 0.607392) (xy -7.288695 0.607392) (xy -7.288695 -2.282318) (xy -6.902174 -2.282318)
     (xy -6.902174 -0.543462) )(layer F.SilkS) (width  0.010000)
  )
  (fp_poly (pts (xy -2.942092 -1.053768) (xy -2.805813 -1.038508) (xy -2.692156 -1.014695) (xy -2.505793 -0.945169) (xy -2.345444 -0.849697) (xy -2.210723 -0.727893) (xy -2.101242 -0.579374) (xy -2.016615 -0.403755)
     (xy -1.985625 -0.312767) (xy -1.977313 -0.284533) (xy -1.970168 -0.257067) (xy -1.964086 -0.227431) (xy -1.958958 -0.192685) (xy -1.954680 -0.149889) (xy -1.951143 -0.096103) (xy -1.948242 -0.028389)
     (xy -1.945871 0.056193) (xy -1.943922 0.160582) (xy -1.942289 0.287719) (xy -1.940866 0.440542) (xy -1.939546 0.621992) (xy -1.938223 0.835007) (xy -1.937113 1.026124) (xy -1.930220 2.227102)
     (xy -2.319130 2.227102) (xy -2.319130 1.744501) (xy -2.401112 1.855865) (xy -2.527894 1.997634) (xy -2.678800 2.112002) (xy -2.852232 2.197905) (xy -2.972536 2.236981) (xy -3.079967 2.257723)
     (xy -3.207885 2.270394) (xy -3.342242 2.274552) (xy -3.468985 2.269753) (xy -3.572528 2.255879) (xy -3.745777 2.202094) (xy -3.898082 2.118846) (xy -4.027187 2.008386) (xy -4.130837 1.872969)
     (xy -4.206774 1.714844) (xy -4.243472 1.586095) (xy -4.268494 1.389598) (xy -4.265726 1.331770) (xy -3.883623 1.331770) (xy -3.868614 1.487396) (xy -3.824276 1.621269) (xy -3.751638 1.732451)
     (xy -3.651733 1.820006) (xy -3.525592 1.882996) (xy -3.374245 1.920484) (xy -3.223671 1.931619) (xy -3.133358 1.928327) (xy -3.040053 1.918732) (xy -2.962884 1.904849) (xy -2.958101 1.903645)
     (xy -2.799483 1.848520) (xy -2.664565 1.769958) (xy -2.568017 1.686870) (xy -2.477900 1.577960) (xy -2.409106 1.451278) (xy -2.360507 1.303216) (xy -2.330979 1.130167) (xy -2.319396 0.928524)
     (xy -2.319130 0.889225) (xy -2.319130 0.677341) (xy -2.783877 0.685974) (xy -2.946424 0.689641) (xy -3.076405 0.694135) (xy -3.178062 0.699738) (xy -3.255637 0.706733) (xy -3.313373 0.715403)
     (xy -3.347444 0.723534) (xy -3.514464 0.786490) (xy -3.651348 0.868338) (xy -3.757356 0.968237) (xy -3.831745 1.085347) (xy -3.873776 1.218827) (xy -3.883623 1.331770) (xy -4.265726 1.331770)
     (xy -4.259529 1.202351) (xy -4.217839 1.027065) (xy -4.144683 0.866452) (xy -4.041322 0.723222) (xy -3.909016 0.600088) (xy -3.749025 0.499761) (xy -3.735317 0.492923) (xy -3.629804 0.446002)
     (xy -3.521333 0.408417) (xy -3.404525 0.379338) (xy -3.274001 0.357931) (xy -3.124383 0.343367) (xy -2.950293 0.334812) (xy -2.746350 0.331437) (xy -2.689930 0.331305) (xy -2.314328 0.331305)
     (xy -2.323962 0.087428) (xy -2.335180 -0.073423) (xy -2.356411 -0.204847) (xy -2.390092 -0.313440) (xy -2.438657 -0.405796) (xy -2.504544 -0.488513) (xy -2.554697 -0.537430) (xy -2.670618 -0.622379)
     (xy -2.802180 -0.680139) (xy -2.953984 -0.712235) (xy -3.108015 -0.720459) (xy -3.286637 -0.705560) (xy -3.445867 -0.663714) (xy -3.583365 -0.596530) (xy -3.696793 -0.505613) (xy -3.783811 -0.392571)
     (xy -3.842081 -0.259009) (xy -3.855389 -0.207065) (xy -3.869190 -0.166472) (xy -3.885795 -0.147445) (xy -3.887409 -0.147246) (xy -3.912941 -0.151237) (xy -3.965035 -0.161919) (xy -4.034467 -0.177354)
     (xy -4.070004 -0.185591) (xy -4.155972 -0.208439) (xy -4.211259 -0.229136) (xy -4.233093 -0.246617) (xy -4.233333 -0.248372) (xy -4.228128 -0.277898) (xy -4.214583 -0.330266) (xy -4.198462 -0.384847)
     (xy -4.129576 -0.545594) (xy -4.029502 -0.689603) (xy -3.900969 -0.814447) (xy -3.746705 -0.917699) (xy -3.569439 -0.996930) (xy -3.478695 -1.025250) (xy -3.368978 -1.046124) (xy -3.235253 -1.057731)
     (xy -3.089098 -1.060227) (xy -2.942092 -1.053768) )(layer F.SilkS) (width  0.010000)
  )
  (fp_poly (pts (xy 0.000137 -1.063979) (xy 0.055218 -1.062269) (xy 0.262206 -1.046130) (xy 0.441086 -1.012178) (xy 0.596998 -0.958401) (xy 0.735082 -0.882788) (xy 0.860475 -0.783325) (xy 0.920408 -0.723608)
     (xy 0.972683 -0.661830) (xy 1.023505 -0.591291) (xy 1.068970 -0.518912) (xy 1.105174 -0.451614) (xy 1.128214 -0.396317) (xy 1.134185 -0.359942) (xy 1.130263 -0.351589) (xy 1.108015 -0.341284)
     (xy 1.060343 -0.323709) (xy 0.997109 -0.302078) (xy 0.928176 -0.279606) (xy 0.863406 -0.259506) (xy 0.812663 -0.244992) (xy 0.785809 -0.239277) (xy 0.785581 -0.239275) (xy 0.774144 -0.254862)
     (xy 0.758167 -0.293388) (xy 0.754597 -0.303818) (xy 0.725099 -0.360905) (xy 0.674024 -0.429755) (xy 0.609906 -0.500962) (xy 0.541281 -0.565115) (xy 0.476684 -0.612807) (xy 0.471499 -0.615889)
     (xy 0.350625 -0.668759) (xy 0.203375 -0.703965) (xy 0.036413 -0.720077) (xy -0.018530 -0.720971) (xy -0.208412 -0.708872) (xy -0.371072 -0.673103) (xy -0.507866 -0.613193) (xy -0.620153 -0.528673)
     (xy -0.643634 -0.504644) (xy -0.711892 -0.419382) (xy -0.752421 -0.336638) (xy -0.770608 -0.242859) (xy -0.773043 -0.179060) (xy -0.755837 -0.047535) (xy -0.705506 0.071041) (xy -0.623982 0.174954)
     (xy -0.513195 0.262487) (xy -0.375078 0.331923) (xy -0.211562 0.381547) (xy -0.123597 0.397981) (xy 0.041052 0.423667) (xy 0.174641 0.446058) (xy 0.282631 0.466462) (xy 0.370484 0.486189)
     (xy 0.443662 0.506549) (xy 0.507625 0.528849) (xy 0.567837 0.554399) (xy 0.606937 0.573066) (xy 0.767990 0.671254) (xy 0.900703 0.791775) (xy 1.003707 0.932465) (xy 1.075636 1.091162)
     (xy 1.115125 1.265702) (xy 1.122754 1.389638) (xy 1.106577 1.568945) (xy 1.058490 1.730323) (xy 0.979162 1.872986) (xy 0.869258 1.996148) (xy 0.729447 2.099022) (xy 0.560395 2.180823)
     (xy 0.410458 2.229023) (xy 0.287850 2.253069) (xy 0.142646 2.268773) (xy -0.011805 2.275674) (xy -0.162156 2.273309) (xy -0.295060 2.261215) (xy -0.333846 2.254815) (xy -0.536871 2.201321)
     (xy -0.716201 2.122888) (xy -0.869727 2.020618) (xy -0.975018 1.919593) (xy -1.015264 1.867778) (xy -1.057655 1.803373) (xy -1.098105 1.734066) (xy -1.132531 1.667545) (xy -1.156847 1.611497)
     (xy -1.166969 1.573610) (xy -1.164569 1.562830) (xy -1.143027 1.552947) (xy -1.096027 1.535907) (xy -1.033446 1.514874) (xy -0.965162 1.493009) (xy -0.901052 1.473477) (xy -0.850995 1.459439)
     (xy -0.824869 1.454058) (xy -0.811788 1.469219) (xy -0.788647 1.508593) (xy -0.765624 1.553293) (xy -0.687573 1.672203) (xy -0.580905 1.773108) (xy -0.450979 1.852166) (xy -0.303157 1.905536)
     (xy -0.260801 1.915058) (xy -0.159092 1.927473) (xy -0.038080 1.930604) (xy 0.089775 1.925168) (xy 0.212017 1.911877) (xy 0.316185 1.891446) (xy 0.354852 1.879759) (xy 0.495062 1.814327)
     (xy 0.605279 1.727712) (xy 0.685379 1.620035) (xy 0.729406 1.513025) (xy 0.748139 1.387197) (xy 0.731763 1.265306) (xy 0.681971 1.150449) (xy 0.600457 1.045722) (xy 0.488913 0.954221)
     (xy 0.394077 0.899799) (xy 0.343435 0.877452) (xy 0.285778 0.858027) (xy 0.214445 0.839928) (xy 0.122777 0.821561) (xy 0.004114 0.801330) (xy -0.058180 0.791456) (xy -0.188030 0.769603)
     (xy -0.308960 0.746255) (xy -0.413070 0.723104) (xy -0.492462 0.701840) (xy -0.520293 0.692492) (xy -0.696566 0.608842) (xy -0.847162 0.501440) (xy -0.970297 0.372736) (xy -1.064190 0.225183)
     (xy -1.127057 0.061229) (xy -1.157115 -0.116673) (xy -1.159565 -0.186285) (xy -1.142494 -0.357694) (xy -1.092415 -0.515019) (xy -1.011034 -0.656432) (xy -0.900053 -0.780107) (xy -0.761178 -0.884214)
     (xy -0.596113 -0.966928) (xy -0.406560 -1.026421) (xy -0.368198 -1.034891) (xy -0.279547 -1.051171) (xy -0.196894 -1.060910) (xy -0.107810 -1.064912) (xy 0.000137 -1.063979) )(layer F.SilkS) (width  0.010000)
  )
  (fp_poly (pts (xy 6.269181 -1.058478) (xy 6.420536 -1.033778) (xy 6.562061 -0.996097) (xy 6.680651 -0.948229) (xy 6.680805 -0.948151) (xy 6.808780 -0.866779) (xy 6.933052 -0.757120) (xy 7.045792 -0.627468)
     (xy 7.139166 -0.486115) (xy 7.166688 -0.433641) (xy 7.201456 -0.355585) (xy 7.232362 -0.274084) (xy 7.257072 -0.196988) (xy 7.273251 -0.132146) (xy 7.278565 -0.087406) (xy 7.274268 -0.071972)
     (xy 7.251975 -0.061751) (xy 7.205301 -0.045134) (xy 7.143585 -0.024983) (xy 7.076167 -0.004155) (xy 7.012389 0.014488) (xy 6.961588 0.028087) (xy 6.933107 0.033782) (xy 6.930151 0.033393)
     (xy 6.922814 0.014049) (xy 6.908789 -0.030502) (xy 6.893692 -0.081726) (xy 6.848064 -0.209919) (xy 6.788197 -0.332901) (xy 6.720113 -0.439649) (xy 6.659887 -0.509767) (xy 6.541386 -0.600533)
     (xy 6.401676 -0.668242) (xy 6.250450 -0.709838) (xy 6.097401 -0.722266) (xy 6.009850 -0.714629) (xy 5.850115 -0.671628) (xy 5.707050 -0.596629) (xy 5.582471 -0.491316) (xy 5.478195 -0.357374)
     (xy 5.396039 -0.196486) (xy 5.368029 -0.119637) (xy 5.344291 -0.021763) (xy 5.325715 0.105413) (xy 5.312303 0.254743) (xy 5.304057 0.419080) (xy 5.300979 0.591279) (xy 5.303072 0.764190)
     (xy 5.310337 0.930669) (xy 5.322778 1.083567) (xy 5.340397 1.215738) (xy 5.363195 1.320036) (xy 5.367567 1.334421) (xy 5.430688 1.486247) (xy 5.515945 1.623250) (xy 5.618452 1.739680)
     (xy 5.733325 1.829789) (xy 5.830098 1.878775) (xy 5.962111 1.915060) (xy 6.106096 1.929986) (xy 6.248109 1.923092) (xy 6.366880 1.896462) (xy 6.517028 1.829703) (xy 6.643094 1.738202)
     (xy 6.746792 1.620009) (xy 6.829838 1.473172) (xy 6.893411 1.297609) (xy 6.910846 1.238945) (xy 6.924644 1.196371) (xy 6.931142 1.180399) (xy 6.949249 1.183043) (xy 6.993304 1.193803)
     (xy 7.054047 1.210057) (xy 7.122215 1.229181) (xy 7.188547 1.248554) (xy 7.243781 1.265554) (xy 7.278655 1.277558) (xy 7.285304 1.280675) (xy 7.285411 1.300776) (xy 7.275041 1.347029)
     (xy 7.256603 1.411104) (xy 7.232502 1.484669) (xy 7.205148 1.559394) (xy 7.203613 1.563332) (xy 7.116355 1.740089) (xy 7.002086 1.897871) (xy 6.864947 2.032827) (xy 6.709082 2.141103)
     (xy 6.538635 2.218846) (xy 6.478702 2.237473) (xy 6.382779 2.256461) (xy 6.264457 2.268934) (xy 6.136504 2.274534) (xy 6.011688 2.272903) (xy 5.902778 2.263685) (xy 5.853044 2.254974)
     (xy 5.659150 2.193086) (xy 5.483271 2.099959) (xy 5.328200 1.977804) (xy 5.196729 1.828828) (xy 5.091651 1.655241) (xy 5.089670 1.651188) (xy 5.048365 1.561940) (xy 5.014735 1.477386)
     (xy 4.988104 1.392530) (xy 4.967792 1.302377) (xy 4.953124 1.201932) (xy 4.943422 1.086200) (xy 4.938007 0.950185) (xy 4.936204 0.788893) (xy 4.937334 0.597327) (xy 4.938136 0.533768)
     (xy 4.941238 0.348995) (xy 4.945549 0.195866) (xy 4.951917 0.069217) (xy 4.961191 -0.036117) (xy 4.974220 -0.125302) (xy 4.991853 -0.203503) (xy 5.014940 -0.275885) (xy 5.044329 -0.347612)
     (xy 5.080869 -0.423851) (xy 5.102482 -0.466038) (xy 5.211377 -0.637872) (xy 5.344489 -0.782804) (xy 5.499539 -0.899490) (xy 5.674249 -0.986584) (xy 5.866342 -1.042743) (xy 6.073539 -1.066620)
     (xy 6.121104 -1.067407) (xy 6.269181 -1.058478) )(layer F.SilkS) (width  0.010000)
  )
  (fp_poly (pts (xy 3.280723 0.427935) (xy 3.285435 1.886595) (xy 4.122899 1.896489) (xy 4.122899 2.227102) (xy 1.969420 2.227102) (xy 1.969420 1.896430) (xy 2.434167 1.891512) (xy 2.898913 1.886595)
     (xy 2.903640 0.602790) (xy 2.908366 -0.681014) (xy 2.061449 -0.681014) (xy 2.061449 -1.030724) (xy 3.276010 -1.030724) (xy 3.280723 0.427935) )(layer F.SilkS) (width  0.010000)
  )
  (fp_poly (pts (xy 3.133592 -2.267463) (xy 3.201247 -2.242108) (xy 3.277918 -2.186263) (xy 3.326052 -2.111856) (xy 3.347938 -2.014666) (xy 3.349855 -1.967828) (xy 3.335051 -1.861691) (xy 3.290879 -1.777364)
     (xy 3.217705 -1.715489) (xy 3.202242 -1.707166) (xy 3.119482 -1.681783) (xy 3.023853 -1.676553) (xy 2.932456 -1.691402) (xy 2.889423 -1.708499) (xy 2.830530 -1.756789) (xy 2.781613 -1.828548)
     (xy 2.750137 -1.910518) (xy 2.742464 -1.969420) (xy 2.755505 -2.043904) (xy 2.789389 -2.124600) (xy 2.836259 -2.195859) (xy 2.875143 -2.233649) (xy 2.949367 -2.267477) (xy 3.039894 -2.278862)
     (xy 3.133592 -2.267463) )(layer F.SilkS) (width  0.010000)
  )
)
