Component,DigiKey Part Number,Part,References,Value,Footprint,Quantity Per PCB,Datasheet,Category,DK_Datasheet_Link,DK_Detail_Page,Digi-Key_PN,Family,MPN,Manufacturer,Status
1,,C_Small,C2 C3 C5 C6 C8 C12,100nF,C_0805_2012Metric,6,~,,,,,,,,
2,,C_Small,C1,10nF,C_0805_2012Metric,1,~,,,,,,,,
3,,C_Small,C7,10uF,C_1206_3216Metric,1,~,,,,,,,,
4,478-8235-1-ND,CP_Small,C9,10uF,CP_EIA-3216-18_Kemet-A,1,~,,,,,,,,
5,,C_Small,C13,1uF,C_0805_2012Metric,1,~,,,,,,,,
6,,C_Small,C10 C11,22pF,C_0805_2012Metric,2,~,,,,,,,,
7,,C_Small,C4,4.7uF,C_1206_3216Metric,1,~,,,,,,,,
8,497-1574-1-ND,LM317MDT-TR,CR1,LM317MDT-TR,LM317MDT-TR,1,,,,,,,,,
9,,D_Small,D5 D6,D_Small,D_SMA,2,~,,,,,,,,
10,,LED,D1 D2 D4,LED,LED_0805_2012Metric,3,~,,,,,,,,
11,,LED,D3,PWRLED,LED_0805_2012Metric,1,~,,,,,,,,
12,,Fuse,F1,Fuse,Fuse_1812_4532Metric,1,~,,,,,,,,
13,WM1399CT-ND,1050170001,J1,1050170001,USB_Micro_B_Female_1050170001,1,https://www.molex.com/pdm_docs/sd/1050170001_sd.pdf,"Connectors, Interconnects",https://www.molex.com/pdm_docs/sd/1050170001_sd.pdf,/product-detail/en/molex/1050170001/WM1399CT-ND/2350885,WM1399CT-ND,"USB, DVI, HDMI Connectors",1050170001,Molex,Active
14,,Conn_01x02,J11 J12,Conn_01x02,PinHeader_1x02_P2.54mm_Vertical,2,~,,,,,,,,
15,,Conn_01x06,J3,Conn_01x06,PinSocket_1x06_P2.54mm_Vertical,1,~,,,,,,,,
16,,Conn_01x06,J8,Conn_01x06,PinHeader_1x06_P2.54mm_Vertical,1,~,,,,,,,,
17,,Conn_01x08,J4 J10,Conn_01x08,PinHeader_1x08_P2.54mm_Vertical,2,~,,,,,,,,
18,,Conn_01x08,J2 J7,Conn_01x08,PinSocket_1x08_P2.54mm_Vertical,2,~,,,,,,,,
19,,Conn_01x10,J6,Conn_01x10,PinSocket_1x10_P2.54mm_Vertical,1,~,,,,,,,,
20,,Conn_01x10,J9,Conn_01x10,PinHeader_1x10_P2.54mm_Vertical,1,~,,,,,,,,
21,,Conn_02x03_Odd_Even,J5,ICSP,PinHeader_2x03_P2.54mm_Vertical,1,~,,,,,,,,
22,,R_Small,R6,10k,R_0805_2012Metric,1,~,,,,,,,,
23,,R_Small,R1 R2 R3 R4 R5 R7,1k,R_0805_2012Metric,6,~,,,,,,,,
24,,R_Small,R9,240,R_0805_2012Metric,1,~,,,,,,,,
25,,R_Small,R8,720,R_0805_2012Metric,1,~,,,,,,,,
26,,SW_Push,SW1,SW_Push,Switch_Tactile_SMD_6x6mm,1,~,,,,,,,,
27,,ATMEGA328P-PU,U4,ATMEGA328P-PU,DIP-28_W7.62mm,1,http://www.microchip.com/mymicrochip/filehandler.aspx?ddocname=en608326,Integrated Circuits (ICs),http://www.microchip.com/mymicrochip/filehandler.aspx?ddocname=en608326,/product-detail/en/microchip-technology/ATMEGA328P-PU/ATMEGA328P-PU-ND/1914589,ATMEGA328P-PU-ND,Embedded - Microcontrollers,ATMEGA328P-PU,Microchip Technology,Active
28,,FT232RL-REEL,U2,FT232RL-REEL,SSOP-28_W5.30mm,1,https://www.ftdichip.com/Support/Documents/DataSheets/ICs/DS_FT232R.pdf,Integrated Circuits (ICs),https://www.ftdichip.com/Support/Documents/DataSheets/ICs/DS_FT232R.pdf,/product-detail/en/ftdi-future-technology-devices-international-ltd/FT232RL-REEL/768-1007-1-ND/1836402,768-1007-1-ND,Interface - Controllers,FT232RL-REEL,"FTDI, Future Technology Devices International Ltd",Active
29,,LD1117S33CTR,U1,LD1117S33CTR,SOT-223,1,http://www.st.com/content/ccc/resource/technical/document/datasheet/99/3b/7d/91/91/51/4b/be/CD00000544.pdf/files/CD00000544.pdf/jcr:content/translations/en.CD00000544.pdf,Integrated Circuits (ICs),http://www.st.com/content/ccc/resource/technical/document/datasheet/99/3b/7d/91/91/51/4b/be/CD00000544.pdf/files/CD00000544.pdf/jcr:content/translations/en.CD00000544.pdf,/product-detail/en/stmicroelectronics/LD1117S33CTR/497-1241-1-ND/586241,497-1241-1-ND,PMIC - Voltage Regulators - Linear,LD1117S33CTR,STMicroelectronics,Active
30,,Crystal_Small,Y1,Crystal_Small,XTAL_ECS-160-20-3X-TR,1,~,,,,,,,,
