EESchema Schematic File Version 4
EELAYER 30 0
EELAYER END
$Descr A4 11693 8268
encoding utf-8
Sheet 1 1
Title ""
Date ""
Rev ""
Comp ""
Comment1 ""
Comment2 ""
Comment3 ""
Comment4 ""
$EndDescr
$Comp
L Device:C_Small C10
U 1 1 5E3A6B46
P 6300 3400
F 0 "C10" V 6071 3400 50  0000 C CNN
F 1 "22pF" V 6162 3400 50  0000 C CNN
F 2 "Capacitor_SMD:C_0805_2012Metric" H 6300 3400 50  0001 C CNN
F 3 "~" H 6300 3400 50  0001 C CNN
	1    6300 3400
	0    1    1    0   
$EndComp
$Comp
L Device:C_Small C11
U 1 1 5E3A75A7
P 6300 3900
F 0 "C11" V 6500 3900 50  0000 C CNN
F 1 "22pF" V 6400 3900 50  0000 C CNN
F 2 "Capacitor_SMD:C_0805_2012Metric" H 6300 3900 50  0001 C CNN
F 3 "~" H 6300 3900 50  0001 C CNN
	1    6300 3900
	0    1    1    0   
$EndComp
$Comp
L Device:Crystal_Small Y1
U 1 1 5E3A8027
P 6500 3650
F 0 "Y1" V 6454 3738 50  0000 L CNN
F 1 "Crystal_Small" V 6545 3738 50  0000 L CNN
F 2 "ECS-160-20-3X-TR:XTAL_ECS-160-20-3X-TR" H 6500 3650 50  0001 C CNN
F 3 "~" H 6500 3650 50  0001 C CNN
	1    6500 3650
	0    1    1    0   
$EndComp
Wire Wire Line
	6750 3600 6750 3400
Wire Wire Line
	6750 3400 6500 3400
Wire Wire Line
	7200 3700 6750 3700
Wire Wire Line
	6750 3700 6750 3900
Wire Wire Line
	6750 3900 6500 3900
Wire Wire Line
	6500 3750 6500 3900
Connection ~ 6500 3900
Wire Wire Line
	6500 3900 6400 3900
Wire Wire Line
	6500 3550 6500 3400
Connection ~ 6500 3400
Wire Wire Line
	6500 3400 6400 3400
$Comp
L power:GND #PWR017
U 1 1 5E3B0B19
P 5900 4000
F 0 "#PWR017" H 5900 3750 50  0001 C CNN
F 1 "GND" H 5905 3827 50  0000 C CNN
F 2 "" H 5900 4000 50  0001 C CNN
F 3 "" H 5900 4000 50  0001 C CNN
	1    5900 4000
	1    0    0    -1  
$EndComp
Wire Wire Line
	6200 3400 5900 3400
Wire Wire Line
	5900 3400 5900 3900
Wire Wire Line
	6200 3900 5900 3900
Connection ~ 5900 3900
Wire Wire Line
	5900 3900 5900 4000
$Comp
L power:GND #PWR022
U 1 1 5E3B1EA0
P 8700 5150
F 0 "#PWR022" H 8700 4900 50  0001 C CNN
F 1 "GND" H 8705 4977 50  0000 C CNN
F 2 "" H 8700 5150 50  0001 C CNN
F 3 "" H 8700 5150 50  0001 C CNN
	1    8700 5150
	1    0    0    -1  
$EndComp
Wire Wire Line
	7700 5700 7700 5650
$Comp
L Device:R_Small R6
U 1 1 5E3B3E72
P 6800 2550
F 0 "R6" H 6859 2596 50  0000 L CNN
F 1 "10k" H 6859 2505 50  0000 L CNN
F 2 "Resistor_SMD:R_0805_2012Metric" H 6800 2550 50  0001 C CNN
F 3 "~" H 6800 2550 50  0001 C CNN
	1    6800 2550
	1    0    0    -1  
$EndComp
Wire Wire Line
	6800 2650 6800 2850
Wire Wire Line
	6800 3000 7200 3000
$Comp
L power:+5V #PWR020
U 1 1 5E3B762D
P 6800 2100
F 0 "#PWR020" H 6800 1950 50  0001 C CNN
F 1 "+5V" H 6815 2273 50  0000 C CNN
F 2 "" H 6800 2100 50  0001 C CNN
F 3 "" H 6800 2100 50  0001 C CNN
	1    6800 2100
	1    0    0    -1  
$EndComp
$Comp
L power:+5V #PWR021
U 1 1 5E3B7A22
P 7250 2100
F 0 "#PWR021" H 7250 1950 50  0001 C CNN
F 1 "+5V" H 7265 2273 50  0000 C CNN
F 2 "" H 7250 2100 50  0001 C CNN
F 3 "" H 7250 2100 50  0001 C CNN
	1    7250 2100
	1    0    0    -1  
$EndComp
Wire Wire Line
	7250 2100 7250 2500
Wire Wire Line
	7700 2500 7700 2700
Wire Wire Line
	7800 2700 7800 2500
Wire Wire Line
	7800 2500 7700 2500
Connection ~ 7700 2500
$Comp
L Connector_Generic:Conn_02x03_Odd_Even J5
U 1 1 5E3BADCD
P 9750 5900
F 0 "J5" H 9800 6217 50  0000 C CNN
F 1 "ICSP" H 9800 6126 50  0000 C CNN
F 2 "Connector_PinHeader_2.54mm:PinHeader_2x03_P2.54mm_Vertical" H 9750 5900 50  0001 C CNN
F 3 "~" H 9750 5900 50  0001 C CNN
	1    9750 5900
	1    0    0    -1  
$EndComp
Wire Wire Line
	7200 3600 6750 3600
$Comp
L dk_Embedded-Microcontrollers:ATMEGA328P-PU U4
U 1 1 5E3A0492
P 7700 4100
F 0 "U4" H 7978 4103 60  0000 L CNN
F 1 "ATMEGA328P-PU" H 7978 3997 60  0000 L CNN
F 2 "digikey-footprints:DIP-28_W7.62mm" H 7900 4300 60  0001 L CNN
F 3 "http://www.microchip.com/mymicrochip/filehandler.aspx?ddocname=en608326" H 7900 4400 60  0001 L CNN
F 4 "ATMEGA328P-PU-ND" H 7900 4500 60  0001 L CNN "Digi-Key_PN"
F 5 "ATMEGA328P-PU" H 7900 4600 60  0001 L CNN "MPN"
F 6 "Integrated Circuits (ICs)" H 7900 4700 60  0001 L CNN "Category"
F 7 "Embedded - Microcontrollers" H 7900 4800 60  0001 L CNN "Family"
F 8 "http://www.microchip.com/mymicrochip/filehandler.aspx?ddocname=en608326" H 7900 4900 60  0001 L CNN "DK_Datasheet_Link"
F 9 "/product-detail/en/microchip-technology/ATMEGA328P-PU/ATMEGA328P-PU-ND/1914589" H 7900 5000 60  0001 L CNN "DK_Detail_Page"
F 10 "IC MCU 8BIT 32KB FLASH 28DIP" H 7900 5100 60  0001 L CNN "Description"
F 11 "Microchip Technology" H 7900 5200 60  0001 L CNN "Manufacturer"
F 12 "Active" H 7900 5300 60  0001 L CNN "Status"
	1    7700 4100
	1    0    0    -1  
$EndComp
Wire Wire Line
	7200 3100 7000 3100
Wire Wire Line
	7200 3200 7000 3200
Wire Wire Line
	7200 3300 7000 3300
Wire Wire Line
	7200 3400 7000 3400
Wire Wire Line
	7200 3500 7000 3500
Wire Wire Line
	7200 3800 7000 3800
Wire Wire Line
	7200 3900 7000 3900
Wire Wire Line
	7200 4000 7000 4000
Wire Wire Line
	7200 4100 7000 4100
Wire Wire Line
	7200 4200 7000 4200
Wire Wire Line
	7200 4300 7000 4300
Wire Wire Line
	7200 4400 7000 4400
Wire Wire Line
	7200 4500 7000 4500
Wire Wire Line
	7200 4800 7000 4800
Wire Wire Line
	7200 4900 7000 4900
Wire Wire Line
	7200 5000 7000 5000
Wire Wire Line
	7200 5100 7000 5100
Wire Wire Line
	7200 5200 7000 5200
Wire Wire Line
	7200 5300 7000 5300
Text Label 7000 3100 0    50   ~ 0
RXI
Text Label 7000 3200 0    50   ~ 0
TXO
Text Label 7000 3300 0    50   ~ 0
D2
Text Label 7000 3400 0    50   ~ 0
D3
Text Label 7000 3500 0    50   ~ 0
D4
Text Label 7000 3800 0    50   ~ 0
D5
Text Label 7000 3900 0    50   ~ 0
D6
Text Label 7000 4000 0    50   ~ 0
D7
Text Label 7000 4100 0    50   ~ 0
D8
Text Label 7000 4200 0    50   ~ 0
D9
Text Label 7000 4300 0    50   ~ 0
D10
Text Label 7000 4400 0    50   ~ 0
MOSI
Text Label 7000 4500 0    50   ~ 0
MISO
Text Label 7000 4800 0    50   ~ 0
A0
Text Label 7000 4900 0    50   ~ 0
A1
Text Label 7000 5000 0    50   ~ 0
A2
Text Label 7000 5100 0    50   ~ 0
A3
Text Label 7000 5200 0    50   ~ 0
A4
Text Label 7000 5300 0    50   ~ 0
A5
Text Label 7000 4700 0    50   ~ 0
AREF
Wire Wire Line
	7200 4700 7000 4700
Text Label 7000 4600 0    50   ~ 0
SCK
Text Label 7500 2750 1    50   ~ 0
AREF
Wire Wire Line
	7250 2500 7500 2500
Connection ~ 7500 2500
Wire Wire Line
	7500 2500 7700 2500
Wire Wire Line
	7500 2500 7500 2750
Wire Wire Line
	6800 2450 6800 2100
Text Label 6900 3000 0    50   ~ 0
RESET
$Comp
L power:GND #PWR031
U 1 1 5E3EFB62
P 10150 6050
F 0 "#PWR031" H 10150 5800 50  0001 C CNN
F 1 "GND" H 10155 5877 50  0000 C CNN
F 2 "" H 10150 6050 50  0001 C CNN
F 3 "" H 10150 6050 50  0001 C CNN
	1    10150 6050
	1    0    0    -1  
$EndComp
$Comp
L power:+5V #PWR030
U 1 1 5E3F00EF
P 10150 5750
F 0 "#PWR030" H 10150 5600 50  0001 C CNN
F 1 "+5V" H 10165 5923 50  0000 C CNN
F 2 "" H 10150 5750 50  0001 C CNN
F 3 "" H 10150 5750 50  0001 C CNN
	1    10150 5750
	1    0    0    -1  
$EndComp
Wire Wire Line
	10050 6000 10150 6000
Wire Wire Line
	10150 6000 10150 6050
Wire Wire Line
	10050 5800 10150 5800
Wire Wire Line
	10150 5800 10150 5750
Text Label 10350 5900 2    50   ~ 0
MOSI
Wire Wire Line
	10050 5900 10350 5900
Wire Wire Line
	9250 5800 9550 5800
Text Label 9250 5800 0    50   ~ 0
MISO
Wire Wire Line
	9550 5900 9250 5900
Text Label 9250 5900 0    50   ~ 0
SCK
Wire Wire Line
	9550 6000 9250 6000
Text Label 9250 6000 0    50   ~ 0
RESET
$Comp
L Connector_Generic:Conn_01x08 J2
U 1 1 5E404DD4
P 9400 1450
F 0 "J2" H 9350 950 50  0000 L CNN
F 1 "Conn_01x08" V 9500 1150 50  0000 L CNN
F 2 "Connector_PinSocket_2.54mm:PinSocket_1x08_P2.54mm_Vertical" H 9400 1450 50  0001 C CNN
F 3 "~" H 9400 1450 50  0001 C CNN
	1    9400 1450
	1    0    0    1   
$EndComp
$Comp
L Connector_Generic:Conn_01x06 J3
U 1 1 5E40586E
P 9400 2200
F 0 "J3" H 9350 2500 50  0000 L CNN
F 1 "Conn_01x06" V 9500 1950 50  0000 L CNN
F 2 "Connector_PinSocket_2.54mm:PinSocket_1x06_P2.54mm_Vertical" H 9400 2200 50  0001 C CNN
F 3 "~" H 9400 2200 50  0001 C CNN
	1    9400 2200
	1    0    0    1   
$EndComp
$Comp
L Connector_Generic:Conn_01x08 J7
U 1 1 5E406A6A
P 9900 2500
F 0 "J7" H 9900 2900 50  0000 C CNN
F 1 "Conn_01x08" V 10000 2450 50  0000 C CNN
F 2 "Connector_PinSocket_2.54mm:PinSocket_1x08_P2.54mm_Vertical" H 9900 2500 50  0001 C CNN
F 3 "~" H 9900 2500 50  0001 C CNN
	1    9900 2500
	-1   0    0    1   
$EndComp
$Comp
L Connector_Generic:Conn_01x10 J6
U 1 1 5E403417
P 9900 1550
F 0 "J6" H 9900 950 50  0000 C CNN
F 1 "Conn_01x10" V 10000 1550 50  0000 C CNN
F 2 "Connector_PinSocket_2.54mm:PinSocket_1x10_P2.54mm_Vertical" H 9900 1550 50  0001 C CNN
F 3 "~" H 9900 1550 50  0001 C CNN
	1    9900 1550
	-1   0    0    1   
$EndComp
$Comp
L Device:R_Small R5
U 1 1 5E441ED3
P 5400 2950
F 0 "R5" V 5204 2950 50  0000 C CNN
F 1 "1k" V 5295 2950 50  0000 C CNN
F 2 "Resistor_SMD:R_0805_2012Metric" H 5400 2950 50  0001 C CNN
F 3 "~" H 5400 2950 50  0001 C CNN
	1    5400 2950
	0    1    1    0   
$EndComp
$Comp
L power:+5V #PWR016
U 1 1 5E4447D9
P 5700 2850
F 0 "#PWR016" H 5700 2700 50  0001 C CNN
F 1 "+5V" H 5715 3023 50  0000 C CNN
F 2 "" H 5700 2850 50  0001 C CNN
F 3 "" H 5700 2850 50  0001 C CNN
	1    5700 2850
	1    0    0    -1  
$EndComp
Wire Wire Line
	5500 2950 5700 2950
Wire Wire Line
	5700 2950 5700 2850
$Comp
L dk_Interface-Controllers:FT232RL-REEL U2
U 1 1 5E3EBE05
P 3550 5000
F 0 "U2" H 3400 5703 60  0000 C CNN
F 1 "FT232RL-REEL" H 3400 5597 60  0000 C CNN
F 2 "digikey-footprints:SSOP-28_W5.30mm" H 3750 5200 60  0001 L CNN
F 3 "https://www.ftdichip.com/Support/Documents/DataSheets/ICs/DS_FT232R.pdf" H 3750 5300 60  0001 L CNN
F 4 "768-1007-1-ND" H 3750 5400 60  0001 L CNN "Digi-Key_PN"
F 5 "FT232RL-REEL" H 3750 5500 60  0001 L CNN "MPN"
F 6 "Integrated Circuits (ICs)" H 3750 5600 60  0001 L CNN "Category"
F 7 "Interface - Controllers" H 3750 5700 60  0001 L CNN "Family"
F 8 "https://www.ftdichip.com/Support/Documents/DataSheets/ICs/DS_FT232R.pdf" H 3750 5800 60  0001 L CNN "DK_Datasheet_Link"
F 9 "/product-detail/en/ftdi-future-technology-devices-international-ltd/FT232RL-REEL/768-1007-1-ND/1836402" H 3750 5900 60  0001 L CNN "DK_Detail_Page"
F 10 "IC USB FS SERIAL UART 28-SSOP" H 3750 6000 60  0001 L CNN "Description"
F 11 "FTDI, Future Technology Devices International Ltd" H 3750 6100 60  0001 L CNN "Manufacturer"
F 12 "Active" H 3750 6200 60  0001 L CNN "Status"
	1    3550 5000
	1    0    0    -1  
$EndComp
$Comp
L power:GND #PWR09
U 1 1 5E3F1544
P 3550 6400
F 0 "#PWR09" H 3550 6150 50  0001 C CNN
F 1 "GND" H 3555 6227 50  0000 C CNN
F 2 "" H 3550 6400 50  0001 C CNN
F 3 "" H 3550 6400 50  0001 C CNN
	1    3550 6400
	1    0    0    -1  
$EndComp
Wire Wire Line
	3350 6200 3350 6400
Wire Wire Line
	3350 6400 3450 6400
Wire Wire Line
	3550 6200 3550 6400
Connection ~ 3550 6400
Wire Wire Line
	3450 6200 3450 6400
Connection ~ 3450 6400
Wire Wire Line
	3450 6400 3550 6400
Wire Wire Line
	3650 6200 3650 6400
Wire Wire Line
	3650 6400 3550 6400
Wire Wire Line
	3750 6200 3750 6400
Wire Wire Line
	3750 6400 3650 6400
Connection ~ 3650 6400
$Comp
L dk_USB-DVI-HDMI-Connectors:1050170001 J1
U 1 1 5E4086BD
P 1250 1600
F 0 "J1" H 1314 2323 50  0000 C CNN
F 1 "1050170001" H 1314 2232 50  0000 C CNN
F 2 "digikey-footprints:USB_Micro_B_Female_1050170001" H 1450 1800 60  0001 L CNN
F 3 "https://www.molex.com/pdm_docs/sd/1050170001_sd.pdf" H 1450 1900 60  0001 L CNN
F 4 "WM1399CT-ND" H 1450 2000 60  0001 L CNN "Digi-Key_PN"
F 5 "1050170001" H 1450 2100 60  0001 L CNN "MPN"
F 6 "Connectors, Interconnects" H 1450 2200 60  0001 L CNN "Category"
F 7 "USB, DVI, HDMI Connectors" H 1450 2300 60  0001 L CNN "Family"
F 8 "https://www.molex.com/pdm_docs/sd/1050170001_sd.pdf" H 1450 2400 60  0001 L CNN "DK_Datasheet_Link"
F 9 "/product-detail/en/molex/1050170001/WM1399CT-ND/2350885" H 1450 2500 60  0001 L CNN "DK_Detail_Page"
F 10 "CONN RCPT USB2.0 MICRO B SMD R/A" H 1450 2600 60  0001 L CNN "Description"
F 11 "Molex" H 1450 2700 60  0001 L CNN "Manufacturer"
F 12 "Active" H 1450 2800 60  0001 L CNN "Status"
	1    1250 1600
	1    0    0    -1  
$EndComp
$Comp
L Device:Fuse F1
U 1 1 5E412481
P 2000 1400
F 0 "F1" V 1803 1400 50  0000 C CNN
F 1 "Fuse" V 1894 1400 50  0000 C CNN
F 2 "Fuse:Fuse_1812_4532Metric" V 1930 1400 50  0001 C CNN
F 3 "~" H 2000 1400 50  0001 C CNN
	1    2000 1400
	0    1    1    0   
$EndComp
$Comp
L power:VBUS #PWR05
U 1 1 5E412C2F
P 2750 1300
F 0 "#PWR05" H 2750 1150 50  0001 C CNN
F 1 "VBUS" H 2765 1473 50  0000 C CNN
F 2 "" H 2750 1300 50  0001 C CNN
F 3 "" H 2750 1300 50  0001 C CNN
	1    2750 1300
	1    0    0    -1  
$EndComp
Wire Wire Line
	1750 1400 1850 1400
$Comp
L Device:C_Small C1
U 1 1 5E41E00C
P 1750 2000
F 0 "C1" V 1521 2000 50  0000 C CNN
F 1 "10nF" V 1612 2000 50  0000 C CNN
F 2 "Capacitor_SMD:C_0805_2012Metric" H 1750 2000 50  0001 C CNN
F 3 "~" H 1750 2000 50  0001 C CNN
	1    1750 2000
	-1   0    0    1   
$EndComp
$Comp
L power:GND #PWR01
U 1 1 5E4203CF
P 1750 2250
F 0 "#PWR01" H 1750 2000 50  0001 C CNN
F 1 "GND" H 1755 2077 50  0000 C CNN
F 2 "" H 1750 2250 50  0001 C CNN
F 3 "" H 1750 2250 50  0001 C CNN
	1    1750 2250
	1    0    0    -1  
$EndComp
Wire Wire Line
	1550 1800 1600 1800
Wire Wire Line
	1600 1800 1600 2200
Wire Wire Line
	1600 2200 1750 2200
Wire Wire Line
	1750 2200 1750 2250
Wire Wire Line
	1750 2100 1750 2200
Connection ~ 1750 2200
Wire Wire Line
	1750 1900 1750 1400
Wire Wire Line
	1750 1400 1550 1400
Connection ~ 1750 1400
Text Label 1600 1500 0    50   ~ 0
USBDM
Wire Wire Line
	1550 1600 1600 1600
Wire Wire Line
	1550 1500 1600 1500
Text Label 1600 1600 0    50   ~ 0
USBDP
NoConn ~ 1550 1700
Text Label 2600 4800 0    50   ~ 0
USBDM
Text Label 2600 4700 0    50   ~ 0
USBDP
$Comp
L Device:C_Small C2
U 1 1 5E43EC05
P 2300 1600
F 0 "C2" H 2300 1850 50  0000 C CNN
F 1 "100nF" H 2300 1750 50  0000 C CNN
F 2 "Capacitor_SMD:C_0805_2012Metric" H 2300 1600 50  0001 C CNN
F 3 "~" H 2300 1600 50  0001 C CNN
	1    2300 1600
	-1   0    0    1   
$EndComp
Wire Wire Line
	2750 1400 2750 1300
Wire Wire Line
	2150 1400 2300 1400
Wire Wire Line
	2300 1400 2300 1500
Connection ~ 2300 1400
Wire Wire Line
	2300 1700 2450 1700
$Comp
L power:GND #PWR04
U 1 1 5E44E9C3
P 2450 1800
F 0 "#PWR04" H 2450 1550 50  0001 C CNN
F 1 "GND" H 2455 1627 50  0000 C CNN
F 2 "" H 2450 1800 50  0001 C CNN
F 3 "" H 2450 1800 50  0001 C CNN
	1    2450 1800
	1    0    0    -1  
$EndComp
Connection ~ 2450 1700
$Comp
L Device:C_Small C4
U 1 1 5E442945
P 2600 1600
F 0 "C4" H 2600 1850 50  0000 C CNN
F 1 "4.7uF" H 2600 1750 50  0000 C CNN
F 2 "Capacitor_SMD:C_1206_3216Metric" H 2600 1600 50  0001 C CNN
F 3 "~" H 2600 1600 50  0001 C CNN
	1    2600 1600
	-1   0    0    1   
$EndComp
Wire Wire Line
	2300 1400 2600 1400
Wire Wire Line
	2450 1700 2600 1700
Wire Wire Line
	2600 1500 2600 1400
Connection ~ 2600 1400
Wire Wire Line
	2600 1400 2750 1400
Wire Wire Line
	2450 1700 2450 1800
$Comp
L Device:C_Small C8
U 1 1 5E45AD67
P 4650 5100
F 0 "C8" V 4450 5100 50  0000 C CNN
F 1 "100nF" V 4550 5100 50  0000 C CNN
F 2 "Capacitor_SMD:C_0805_2012Metric" H 4650 5100 50  0001 C CNN
F 3 "~" H 4650 5100 50  0001 C CNN
	1    4650 5100
	-1   0    0    1   
$EndComp
$Comp
L power:GND #PWR014
U 1 1 5E45B2FD
P 4650 5350
F 0 "#PWR014" H 4650 5100 50  0001 C CNN
F 1 "GND" H 4655 5177 50  0000 C CNN
F 2 "" H 4650 5350 50  0001 C CNN
F 3 "" H 4650 5350 50  0001 C CNN
	1    4650 5350
	1    0    0    -1  
$EndComp
Wire Wire Line
	4650 4900 4650 5000
Wire Wire Line
	4650 5200 4650 5350
Wire Wire Line
	4400 5100 4200 5100
Wire Wire Line
	2600 5100 2400 5100
Text Label 4400 5100 2    50   ~ 0
RXI
Text Label 2400 5100 0    50   ~ 0
TXO
$Comp
L Switch:SW_Push SW1
U 1 1 5E484F0C
P 6600 3100
F 0 "SW1" H 6600 2950 50  0000 C CNN
F 1 "SW_Push" H 6600 3050 50  0000 C CNN
F 2 "digikey-footprints:Switch_Tactile_SMD_6x6mm" H 6600 3300 50  0001 C CNN
F 3 "~" H 6600 3300 50  0001 C CNN
	1    6600 3100
	1    0    0    -1  
$EndComp
$Comp
L power:GND #PWR019
U 1 1 5E486011
P 6400 3200
F 0 "#PWR019" H 6400 2950 50  0001 C CNN
F 1 "GND" H 6405 3027 50  0000 C CNN
F 2 "" H 6400 3200 50  0001 C CNN
F 3 "" H 6400 3200 50  0001 C CNN
	1    6400 3200
	1    0    0    -1  
$EndComp
Wire Wire Line
	6400 3100 6400 3200
Wire Wire Line
	6800 3100 6800 3000
Connection ~ 6800 3000
Wire Wire Line
	4150 5200 3950 5200
Text Label 4150 5200 2    50   ~ 0
DTR
Text Label 6300 2850 0    50   ~ 0
DTR
$Comp
L Device:C_Small C12
U 1 1 5E4AA690
P 6650 2850
F 0 "C12" V 6750 2850 50  0000 C CNN
F 1 "100nF" V 6550 2850 50  0000 C CNN
F 2 "Capacitor_SMD:C_0805_2012Metric" H 6650 2850 50  0001 C CNN
F 3 "~" H 6650 2850 50  0001 C CNN
	1    6650 2850
	0    1    1    0   
$EndComp
Wire Wire Line
	6300 2850 6550 2850
Wire Wire Line
	6750 2850 6800 2850
Connection ~ 6800 2850
Wire Wire Line
	6800 2850 6800 3000
$Comp
L Device:C_Small C3
U 1 1 5E4BADE7
P 2250 5000
F 0 "C3" H 2250 5250 50  0000 C CNN
F 1 "100nF" H 2250 5150 50  0000 C CNN
F 2 "Capacitor_SMD:C_0805_2012Metric" H 2250 5000 50  0001 C CNN
F 3 "~" H 2250 5000 50  0001 C CNN
	1    2250 5000
	-1   0    0    1   
$EndComp
Wire Wire Line
	3450 4400 3450 4500
Wire Wire Line
	3350 4500 3350 4400
Connection ~ 3350 4400
Wire Wire Line
	3350 4400 3450 4400
Wire Wire Line
	2600 4700 2850 4700
Wire Wire Line
	2600 4800 2850 4800
$Comp
L power:GND #PWR03
U 1 1 5E4D4B09
P 2250 5300
F 0 "#PWR03" H 2250 5050 50  0001 C CNN
F 1 "GND" H 2255 5127 50  0000 C CNN
F 2 "" H 2250 5300 50  0001 C CNN
F 3 "" H 2250 5300 50  0001 C CNN
	1    2250 5300
	1    0    0    -1  
$EndComp
Wire Wire Line
	2250 5100 2250 5300
Text Label 2700 6000 0    50   ~ 0
LEDT
Text Label 2700 5900 0    50   ~ 0
LEDR
Wire Wire Line
	2700 5900 2850 5900
Wire Wire Line
	2700 6000 2850 6000
Text Label 1700 6850 0    50   ~ 0
LEDT
Text Label 1700 6750 0    50   ~ 0
LEDR
$Comp
L power:+5V #PWR07
U 1 1 5E4FC8D0
P 2950 6600
F 0 "#PWR07" H 2950 6450 50  0001 C CNN
F 1 "+5V" H 2965 6773 50  0000 C CNN
F 2 "" H 2950 6600 50  0001 C CNN
F 3 "" H 2950 6600 50  0001 C CNN
	1    2950 6600
	1    0    0    -1  
$EndComp
$Comp
L Device:LED D1
U 1 1 5E4FD53C
P 2650 6700
F 0 "D1" H 2643 6916 50  0000 C CNN
F 1 "LED" H 2643 6825 50  0000 C CNN
F 2 "LED_SMD:LED_0805_2012Metric" H 2650 6700 50  0001 C CNN
F 3 "~" H 2650 6700 50  0001 C CNN
	1    2650 6700
	1    0    0    -1  
$EndComp
$Comp
L Device:R_Small R1
U 1 1 5E4FE956
P 2100 6750
F 0 "R1" V 1904 6750 50  0000 C CNN
F 1 "1k" V 1995 6750 50  0000 C CNN
F 2 "Resistor_SMD:R_0805_2012Metric" H 2100 6750 50  0001 C CNN
F 3 "~" H 2100 6750 50  0001 C CNN
	1    2100 6750
	0    1    1    0   
$EndComp
$Comp
L Device:R_Small R2
U 1 1 5E504CA1
P 2100 6850
F 0 "R2" V 1900 6850 50  0000 C CNN
F 1 "1k" V 2000 6850 50  0000 C CNN
F 2 "Resistor_SMD:R_0805_2012Metric" H 2100 6850 50  0001 C CNN
F 3 "~" H 2100 6850 50  0001 C CNN
	1    2100 6850
	0    -1   -1   0   
$EndComp
$Comp
L Device:LED D2
U 1 1 5E510534
P 2650 6900
F 0 "D2" H 2650 6650 50  0000 C CNN
F 1 "LED" H 2650 6750 50  0000 C CNN
F 2 "LED_SMD:LED_0805_2012Metric" H 2650 6900 50  0001 C CNN
F 3 "~" H 2650 6900 50  0001 C CNN
	1    2650 6900
	1    0    0    -1  
$EndComp
Wire Wire Line
	2350 6900 2350 6850
Wire Wire Line
	2350 6850 2200 6850
Wire Wire Line
	2350 6900 2500 6900
Wire Wire Line
	2200 6750 2350 6750
Wire Wire Line
	2350 6750 2350 6700
Wire Wire Line
	2350 6700 2500 6700
Wire Wire Line
	2950 6600 2950 6700
Wire Wire Line
	2950 6700 2800 6700
Wire Wire Line
	2950 6900 2950 6700
Connection ~ 2950 6700
Wire Wire Line
	2800 6900 2950 6900
Wire Wire Line
	1700 6750 2000 6750
Wire Wire Line
	1700 6850 2000 6850
Wire Wire Line
	10100 2800 10300 2800
Wire Wire Line
	10100 2700 10300 2700
Text Label 10300 2800 2    50   ~ 0
RXI
Text Label 10300 2700 2    50   ~ 0
TXO
Wire Wire Line
	10100 2600 10300 2600
Wire Wire Line
	10100 2500 10300 2500
Wire Wire Line
	10100 2400 10300 2400
Text Label 10300 2600 2    50   ~ 0
D2
Text Label 10300 2500 2    50   ~ 0
D3
Text Label 10300 2400 2    50   ~ 0
D4
Wire Wire Line
	10100 2300 10300 2300
Wire Wire Line
	10100 2200 10300 2200
Wire Wire Line
	10100 2100 10300 2100
Wire Wire Line
	10100 1950 10300 1950
Wire Wire Line
	10100 1850 10300 1850
Wire Wire Line
	10100 1750 10300 1750
Text Label 10300 2300 2    50   ~ 0
D5
Text Label 10300 2200 2    50   ~ 0
D6
Text Label 10300 2100 2    50   ~ 0
D7
Text Label 10300 1950 2    50   ~ 0
D8
Text Label 10300 1850 2    50   ~ 0
D9
Text Label 10300 1750 2    50   ~ 0
D10
Wire Wire Line
	10100 1650 10300 1650
Wire Wire Line
	10100 1550 10300 1550
Text Label 10300 1650 2    50   ~ 0
MOSI
Text Label 10300 1550 2    50   ~ 0
MISO
Text Label 10300 1450 2    50   ~ 0
SCK
Wire Wire Line
	10100 1450 10300 1450
$Comp
L power:GND #PWR033
U 1 1 5E48E2F6
P 10450 1450
F 0 "#PWR033" H 10450 1200 50  0001 C CNN
F 1 "GND" H 10455 1277 50  0000 C CNN
F 2 "" H 10450 1450 50  0001 C CNN
F 3 "" H 10450 1450 50  0001 C CNN
	1    10450 1450
	1    0    0    -1  
$EndComp
Wire Wire Line
	10100 1350 10450 1350
Wire Wire Line
	10450 1350 10450 1450
Wire Wire Line
	9200 2400 9000 2400
Wire Wire Line
	9200 2300 9000 2300
Wire Wire Line
	9200 2200 9000 2200
Wire Wire Line
	9200 2100 9000 2100
Wire Wire Line
	9200 2000 9000 2000
Wire Wire Line
	9200 1900 9000 1900
Text Label 9000 2400 0    50   ~ 0
A0
Text Label 9000 2300 0    50   ~ 0
A1
Text Label 9000 2200 0    50   ~ 0
A2
Text Label 9000 2100 0    50   ~ 0
A3
Text Label 9000 2000 0    50   ~ 0
A4
Text Label 9000 1900 0    50   ~ 0
A5
$Comp
L Device:R_Small R4
U 1 1 5E4383D5
P 4100 5100
F 0 "R4" V 3904 5100 50  0000 C CNN
F 1 "1k" V 3995 5100 50  0000 C CNN
F 2 "Resistor_SMD:R_0805_2012Metric" H 4100 5100 50  0001 C CNN
F 3 "~" H 4100 5100 50  0001 C CNN
	1    4100 5100
	0    1    1    0   
$EndComp
Wire Wire Line
	3950 4900 4650 4900
Wire Wire Line
	3950 5100 4000 5100
$Comp
L Device:R_Small R3
U 1 1 5E4D8D1B
P 2700 5100
F 0 "R3" V 2504 5100 50  0000 C CNN
F 1 "1k" V 2595 5100 50  0000 C CNN
F 2 "Resistor_SMD:R_0805_2012Metric" H 2700 5100 50  0001 C CNN
F 3 "~" H 2700 5100 50  0001 C CNN
	1    2700 5100
	0    1    1    0   
$EndComp
Wire Wire Line
	2800 5100 2850 5100
Wire Wire Line
	2250 4400 2250 4900
Wire Wire Line
	2250 4900 2850 4900
Connection ~ 2250 4900
Wire Wire Line
	4650 2950 4650 3050
Wire Wire Line
	4850 2950 4650 2950
Wire Wire Line
	5150 2950 5300 2950
$Comp
L power:GND #PWR013
U 1 1 5E442D25
P 4650 3050
F 0 "#PWR013" H 4650 2800 50  0001 C CNN
F 1 "GND" H 4655 2877 50  0000 C CNN
F 2 "" H 4650 3050 50  0001 C CNN
F 3 "" H 4650 3050 50  0001 C CNN
	1    4650 3050
	1    0    0    -1  
$EndComp
$Comp
L Device:LED D3
U 1 1 5E4424AA
P 5000 2950
F 0 "D3" H 4993 3166 50  0000 C CNN
F 1 "PWRLED" H 4993 3075 50  0000 C CNN
F 2 "LED_SMD:LED_0805_2012Metric" H 5000 2950 50  0001 C CNN
F 3 "~" H 5000 2950 50  0001 C CNN
	1    5000 2950
	1    0    0    -1  
$EndComp
$Comp
L Device:R_Small R7
U 1 1 5E59C103
P 6850 4600
F 0 "R7" V 6654 4600 50  0000 C CNN
F 1 "1k" V 6745 4600 50  0000 C CNN
F 2 "Resistor_SMD:R_0805_2012Metric" H 6850 4600 50  0001 C CNN
F 3 "~" H 6850 4600 50  0001 C CNN
	1    6850 4600
	0    1    1    0   
$EndComp
Wire Wire Line
	6350 4600 6150 4600
$Comp
L Device:LED D4
U 1 1 5E59C10C
P 6500 4600
F 0 "D4" H 6493 4816 50  0000 C CNN
F 1 "LED" H 6493 4725 50  0000 C CNN
F 2 "LED_SMD:LED_0805_2012Metric" H 6500 4600 50  0001 C CNN
F 3 "~" H 6500 4600 50  0001 C CNN
	1    6500 4600
	1    0    0    -1  
$EndComp
Wire Wire Line
	6150 4600 6150 4700
$Comp
L power:GND #PWR018
U 1 1 5E5B5113
P 6150 4700
F 0 "#PWR018" H 6150 4450 50  0001 C CNN
F 1 "GND" H 6155 4527 50  0000 C CNN
F 2 "" H 6150 4700 50  0001 C CNN
F 3 "" H 6150 4700 50  0001 C CNN
	1    6150 4700
	1    0    0    -1  
$EndComp
Wire Wire Line
	6650 4600 6750 4600
Wire Wire Line
	6950 4600 7200 4600
Wire Wire Line
	2250 4400 3350 4400
$Comp
L power:+5V #PWR02
U 1 1 5E5EDA2D
P 2250 4400
F 0 "#PWR02" H 2250 4250 50  0001 C CNN
F 1 "+5V" H 2265 4573 50  0000 C CNN
F 2 "" H 2250 4400 50  0001 C CNN
F 3 "" H 2250 4400 50  0001 C CNN
	1    2250 4400
	1    0    0    -1  
$EndComp
Connection ~ 2250 4400
Wire Wire Line
	10100 1150 10300 1150
Wire Wire Line
	10100 1050 10300 1050
Text Label 10300 1150 2    50   ~ 0
A4
Text Label 10300 1050 2    50   ~ 0
A5
$Comp
L power:+5V #PWR032
U 1 1 5E5FD838
P 10450 1150
F 0 "#PWR032" H 10450 1000 50  0001 C CNN
F 1 "+5V" H 10465 1323 50  0000 C CNN
F 2 "" H 10450 1150 50  0001 C CNN
F 3 "" H 10450 1150 50  0001 C CNN
	1    10450 1150
	1    0    0    -1  
$EndComp
Wire Wire Line
	10450 1250 10100 1250
Wire Wire Line
	10450 1150 10450 1250
$Comp
L power:+5V #PWR023
U 1 1 5E6108BF
P 8800 1350
F 0 "#PWR023" H 8800 1200 50  0001 C CNN
F 1 "+5V" H 8815 1523 50  0000 C CNN
F 2 "" H 8800 1350 50  0001 C CNN
F 3 "" H 8800 1350 50  0001 C CNN
	1    8800 1350
	-1   0    0    -1  
$EndComp
Wire Wire Line
	8800 1350 8800 1450
$Comp
L power:GND #PWR024
U 1 1 5E447F5C
P 8800 1700
F 0 "#PWR024" H 8800 1450 50  0001 C CNN
F 1 "GND" H 8805 1527 50  0000 C CNN
F 2 "" H 8800 1700 50  0001 C CNN
F 3 "" H 8800 1700 50  0001 C CNN
	1    8800 1700
	1    0    0    -1  
$EndComp
$Comp
L dk_PMIC-Voltage-Regulators-Linear:LD1117S33CTR U1
U 1 1 5E462421
P 2950 3050
F 0 "U1" H 3000 3337 60  0000 C CNN
F 1 "LD1117S33CTR" H 3000 3231 60  0000 C CNN
F 2 "digikey-footprints:SOT-223" H 3150 3250 60  0001 L CNN
F 3 "http://www.st.com/content/ccc/resource/technical/document/datasheet/99/3b/7d/91/91/51/4b/be/CD00000544.pdf/files/CD00000544.pdf/jcr:content/translations/en.CD00000544.pdf" H 3150 3350 60  0001 L CNN
F 4 "497-1241-1-ND" H 3150 3450 60  0001 L CNN "Digi-Key_PN"
F 5 "LD1117S33CTR" H 3150 3550 60  0001 L CNN "MPN"
F 6 "Integrated Circuits (ICs)" H 3150 3650 60  0001 L CNN "Category"
F 7 "PMIC - Voltage Regulators - Linear" H 3150 3750 60  0001 L CNN "Family"
F 8 "http://www.st.com/content/ccc/resource/technical/document/datasheet/99/3b/7d/91/91/51/4b/be/CD00000544.pdf/files/CD00000544.pdf/jcr:content/translations/en.CD00000544.pdf" H 3150 3850 60  0001 L CNN "DK_Datasheet_Link"
F 9 "/product-detail/en/stmicroelectronics/LD1117S33CTR/497-1241-1-ND/586241" H 3150 3950 60  0001 L CNN "DK_Detail_Page"
F 10 "IC REG LINEAR 3.3V 800MA SOT223" H 3150 4050 60  0001 L CNN "Description"
F 11 "STMicroelectronics" H 3150 4150 60  0001 L CNN "Manufacturer"
F 12 "Active" H 3150 4250 60  0001 L CNN "Status"
	1    2950 3050
	1    0    0    -1  
$EndComp
$Comp
L Device:C_Small C6
U 1 1 5E46E48B
P 4200 1400
F 0 "C6" H 4350 1450 50  0000 C CNN
F 1 "0.1uF" H 4350 1350 50  0000 C CNN
F 2 "Capacitor_SMD:C_0805_2012Metric" H 4200 1400 50  0001 C CNN
F 3 "~" H 4200 1400 50  0001 C CNN
	1    4200 1400
	-1   0    0    1   
$EndComp
$Comp
L power:GND #PWR012
U 1 1 5E480DCB
P 4650 1800
F 0 "#PWR012" H 4650 1550 50  0001 C CNN
F 1 "GND" H 4655 1627 50  0000 C CNN
F 2 "" H 4650 1800 50  0001 C CNN
F 3 "" H 4650 1800 50  0001 C CNN
	1    4650 1800
	1    0    0    -1  
$EndComp
$Comp
L power:VBUS #PWR010
U 1 1 5E481BCE
P 4050 1150
F 0 "#PWR010" H 4050 1000 50  0001 C CNN
F 1 "VBUS" H 4065 1323 50  0000 C CNN
F 2 "" H 4050 1150 50  0001 C CNN
F 3 "" H 4050 1150 50  0001 C CNN
	1    4050 1150
	1    0    0    -1  
$EndComp
Wire Wire Line
	4050 1150 4050 1250
$Comp
L Device:C_Small C5
U 1 1 5E4DA2BB
P 2500 3150
F 0 "C5" H 2500 3400 50  0000 C CNN
F 1 "100nF" H 2500 3300 50  0000 C CNN
F 2 "Capacitor_SMD:C_0805_2012Metric" H 2500 3150 50  0001 C CNN
F 3 "~" H 2500 3150 50  0001 C CNN
	1    2500 3150
	-1   0    0    1   
$EndComp
Wire Wire Line
	2350 2950 2350 3050
Wire Wire Line
	2500 3050 2650 3050
Wire Wire Line
	2350 3050 2500 3050
Connection ~ 2500 3050
Wire Wire Line
	2500 3250 2500 3350
Wire Wire Line
	2500 3350 2950 3350
$Comp
L Device:C_Small C7
U 1 1 5E4E75F9
P 3500 3150
F 0 "C7" H 3500 3400 50  0000 C CNN
F 1 "10uF" H 3500 3300 50  0000 C CNN
F 2 "Capacitor_SMD:C_1206_3216Metric" H 3500 3150 50  0001 C CNN
F 3 "~" H 3500 3150 50  0001 C CNN
	1    3500 3150
	-1   0    0    1   
$EndComp
Wire Wire Line
	3600 3050 3500 3050
Wire Wire Line
	3600 2950 3600 3050
Connection ~ 3500 3050
Wire Wire Line
	3500 3050 3400 3050
Wire Wire Line
	3500 3350 3500 3250
$Comp
L power:GND #PWR08
U 1 1 5E4F1BE3
P 2950 3350
F 0 "#PWR08" H 2950 3100 50  0001 C CNN
F 1 "GND" H 2955 3177 50  0000 C CNN
F 2 "" H 2950 3350 50  0001 C CNN
F 3 "" H 2950 3350 50  0001 C CNN
	1    2950 3350
	1    0    0    -1  
$EndComp
Connection ~ 2950 3350
Wire Wire Line
	2950 3350 3500 3350
$Comp
L power:VBUS #PWR029
U 1 1 5E506693
P 9200 1750
F 0 "#PWR029" H 9200 1600 50  0001 C CNN
F 1 "VBUS" V 9200 1950 50  0000 C CNN
F 2 "" H 9200 1750 50  0001 C CNN
F 3 "" H 9200 1750 50  0001 C CNN
	1    9200 1750
	0    -1   -1   0   
$EndComp
Wire Wire Line
	8800 1700 8800 1650
Wire Wire Line
	8800 1550 9200 1550
Wire Wire Line
	9200 1650 8800 1650
Connection ~ 8800 1650
Wire Wire Line
	8800 1650 8800 1550
Wire Wire Line
	8800 1450 9200 1450
Wire Wire Line
	3350 3150 3400 3150
Wire Wire Line
	3400 3150 3400 3050
Connection ~ 3400 3050
Wire Wire Line
	3400 3050 3350 3050
$Comp
L power:+3.3V #PWR011
U 1 1 5E543D3A
P 3600 2950
F 0 "#PWR011" H 3600 2800 50  0001 C CNN
F 1 "+3.3V" H 3615 3123 50  0000 C CNN
F 2 "" H 3600 2950 50  0001 C CNN
F 3 "" H 3600 2950 50  0001 C CNN
	1    3600 2950
	1    0    0    -1  
$EndComp
$Comp
L power:+3.3V #PWR025
U 1 1 5E5440CE
P 8900 1250
F 0 "#PWR025" H 8900 1100 50  0001 C CNN
F 1 "+3.3V" H 8915 1423 50  0000 C CNN
F 2 "" H 8900 1250 50  0001 C CNN
F 3 "" H 8900 1250 50  0001 C CNN
	1    8900 1250
	1    0    0    -1  
$EndComp
Wire Wire Line
	8900 1250 8900 1350
Wire Wire Line
	8900 1350 9200 1350
Text Label 8950 1250 0    50   ~ 0
RESET
Wire Wire Line
	8950 1250 9200 1250
$Comp
L power:+5V #PWR026
U 1 1 5E57C122
P 9050 1050
F 0 "#PWR026" H 9050 900 50  0001 C CNN
F 1 "+5V" H 9065 1223 50  0000 C CNN
F 2 "" H 9050 1050 50  0001 C CNN
F 3 "" H 9050 1050 50  0001 C CNN
	1    9050 1050
	-1   0    0    -1  
$EndComp
Wire Wire Line
	9050 1050 9050 1150
Wire Wire Line
	9050 1150 9200 1150
NoConn ~ 9200 1050
Wire Wire Line
	7800 5600 7800 5650
Wire Wire Line
	7800 5650 7700 5650
Connection ~ 7700 5650
Wire Wire Line
	7700 5650 7700 5600
NoConn ~ 3950 5300
NoConn ~ 3950 5000
NoConn ~ 2850 5200
NoConn ~ 2850 5000
NoConn ~ 2850 5300
NoConn ~ 2850 5400
NoConn ~ 2850 5500
NoConn ~ 2850 5600
NoConn ~ 2850 5700
NoConn ~ 2850 5800
$Comp
L power:+5V #PWR0101
U 1 1 5E5767D2
P 2350 2950
F 0 "#PWR0101" H 2350 2800 50  0001 C CNN
F 1 "+5V" H 2365 3123 50  0000 C CNN
F 2 "" H 2350 2950 50  0001 C CNN
F 3 "" H 2350 2950 50  0001 C CNN
	1    2350 2950
	1    0    0    -1  
$EndComp
$Comp
L Connector_Generic:Conn_01x08 J4
U 1 1 5E6AF7F9
P 9650 3850
F 0 "J4" H 9600 3350 50  0000 L CNN
F 1 "Conn_01x08" V 9750 3550 50  0000 L CNN
F 2 "Connector_PinHeader_2.54mm:PinHeader_1x08_P2.54mm_Vertical" H 9650 3850 50  0001 C CNN
F 3 "~" H 9650 3850 50  0001 C CNN
	1    9650 3850
	1    0    0    1   
$EndComp
$Comp
L Connector_Generic:Conn_01x06 J8
U 1 1 5E6AF7FF
P 9650 4600
F 0 "J8" H 9600 4900 50  0000 L CNN
F 1 "Conn_01x06" V 9750 4350 50  0000 L CNN
F 2 "Connector_PinHeader_2.54mm:PinHeader_1x06_P2.54mm_Vertical" H 9650 4600 50  0001 C CNN
F 3 "~" H 9650 4600 50  0001 C CNN
	1    9650 4600
	1    0    0    1   
$EndComp
$Comp
L Connector_Generic:Conn_01x08 J10
U 1 1 5E6AF805
P 10150 4900
F 0 "J10" H 10150 5300 50  0000 C CNN
F 1 "Conn_01x08" V 10250 4850 50  0000 C CNN
F 2 "Connector_PinHeader_2.54mm:PinHeader_1x08_P2.54mm_Vertical" H 10150 4900 50  0001 C CNN
F 3 "~" H 10150 4900 50  0001 C CNN
	1    10150 4900
	-1   0    0    1   
$EndComp
$Comp
L Connector_Generic:Conn_01x10 J9
U 1 1 5E6AF80B
P 10150 3950
F 0 "J9" H 10150 3350 50  0000 C CNN
F 1 "Conn_01x10" V 10250 3950 50  0000 C CNN
F 2 "Connector_PinHeader_2.54mm:PinHeader_1x10_P2.54mm_Vertical" H 10150 3950 50  0001 C CNN
F 3 "~" H 10150 3950 50  0001 C CNN
	1    10150 3950
	-1   0    0    1   
$EndComp
Wire Wire Line
	10350 5200 10550 5200
Wire Wire Line
	10350 5100 10550 5100
Text Label 10550 5200 2    50   ~ 0
RXI
Text Label 10550 5100 2    50   ~ 0
TXO
Wire Wire Line
	10350 5000 10550 5000
Wire Wire Line
	10350 4900 10550 4900
Wire Wire Line
	10350 4800 10550 4800
Text Label 10550 5000 2    50   ~ 0
D2
Text Label 10550 4900 2    50   ~ 0
D3
Text Label 10550 4800 2    50   ~ 0
D4
Wire Wire Line
	10350 4700 10550 4700
Wire Wire Line
	10350 4600 10550 4600
Wire Wire Line
	10350 4500 10550 4500
Wire Wire Line
	10350 4350 10550 4350
Wire Wire Line
	10350 4250 10550 4250
Wire Wire Line
	10350 4150 10550 4150
Text Label 10550 4700 2    50   ~ 0
D5
Text Label 10550 4600 2    50   ~ 0
D6
Text Label 10550 4500 2    50   ~ 0
D7
Text Label 10550 4350 2    50   ~ 0
D8
Text Label 10550 4250 2    50   ~ 0
D9
Text Label 10550 4150 2    50   ~ 0
D10
Wire Wire Line
	10350 4050 10550 4050
Wire Wire Line
	10350 3950 10550 3950
Text Label 10550 4050 2    50   ~ 0
MOSI
Text Label 10550 3950 2    50   ~ 0
MISO
Text Label 10550 3850 2    50   ~ 0
SCK
Wire Wire Line
	10350 3850 10550 3850
$Comp
L power:GND #PWR0102
U 1 1 5E6AF82D
P 10700 3850
F 0 "#PWR0102" H 10700 3600 50  0001 C CNN
F 1 "GND" H 10705 3677 50  0000 C CNN
F 2 "" H 10700 3850 50  0001 C CNN
F 3 "" H 10700 3850 50  0001 C CNN
	1    10700 3850
	1    0    0    -1  
$EndComp
Wire Wire Line
	10350 3750 10700 3750
Wire Wire Line
	10700 3750 10700 3850
Wire Wire Line
	9450 4800 9250 4800
Wire Wire Line
	9450 4700 9250 4700
Wire Wire Line
	9450 4600 9250 4600
Wire Wire Line
	9450 4500 9250 4500
Wire Wire Line
	9450 4400 9250 4400
Wire Wire Line
	9450 4300 9250 4300
Text Label 9250 4800 0    50   ~ 0
A0
Text Label 9250 4700 0    50   ~ 0
A1
Text Label 9250 4600 0    50   ~ 0
A2
Text Label 9250 4500 0    50   ~ 0
A3
Text Label 9250 4400 0    50   ~ 0
A4
Text Label 9250 4300 0    50   ~ 0
A5
Wire Wire Line
	10350 3550 10550 3550
Wire Wire Line
	10350 3450 10550 3450
Text Label 10550 3550 2    50   ~ 0
A4
Text Label 10550 3450 2    50   ~ 0
A5
$Comp
L power:+5V #PWR0103
U 1 1 5E6AF845
P 10700 3550
F 0 "#PWR0103" H 10700 3400 50  0001 C CNN
F 1 "+5V" H 10715 3723 50  0000 C CNN
F 2 "" H 10700 3550 50  0001 C CNN
F 3 "" H 10700 3550 50  0001 C CNN
	1    10700 3550
	1    0    0    -1  
$EndComp
Wire Wire Line
	10700 3650 10350 3650
Wire Wire Line
	10700 3550 10700 3650
$Comp
L power:+5V #PWR0104
U 1 1 5E6AF84D
P 9050 3750
F 0 "#PWR0104" H 9050 3600 50  0001 C CNN
F 1 "+5V" H 9065 3923 50  0000 C CNN
F 2 "" H 9050 3750 50  0001 C CNN
F 3 "" H 9050 3750 50  0001 C CNN
	1    9050 3750
	-1   0    0    -1  
$EndComp
Wire Wire Line
	9050 3750 9050 3850
$Comp
L power:GND #PWR0105
U 1 1 5E6AF854
P 9050 4100
F 0 "#PWR0105" H 9050 3850 50  0001 C CNN
F 1 "GND" H 9055 3927 50  0000 C CNN
F 2 "" H 9050 4100 50  0001 C CNN
F 3 "" H 9050 4100 50  0001 C CNN
	1    9050 4100
	1    0    0    -1  
$EndComp
$Comp
L power:VBUS #PWR0106
U 1 1 5E6AF85A
P 9450 4150
F 0 "#PWR0106" H 9450 4000 50  0001 C CNN
F 1 "VBUS" V 9450 4350 50  0000 C CNN
F 2 "" H 9450 4150 50  0001 C CNN
F 3 "" H 9450 4150 50  0001 C CNN
	1    9450 4150
	0    -1   -1   0   
$EndComp
Wire Wire Line
	9050 4100 9050 4050
Wire Wire Line
	9050 3950 9450 3950
Wire Wire Line
	9450 4050 9050 4050
Connection ~ 9050 4050
Wire Wire Line
	9050 4050 9050 3950
Wire Wire Line
	9050 3850 9450 3850
$Comp
L power:+3.3V #PWR0107
U 1 1 5E6AF866
P 9150 3650
F 0 "#PWR0107" H 9150 3500 50  0001 C CNN
F 1 "+3.3V" H 9165 3823 50  0000 C CNN
F 2 "" H 9150 3650 50  0001 C CNN
F 3 "" H 9150 3650 50  0001 C CNN
	1    9150 3650
	1    0    0    -1  
$EndComp
Wire Wire Line
	9150 3650 9150 3750
Wire Wire Line
	9150 3750 9450 3750
Text Label 9200 3650 0    50   ~ 0
RESET
Wire Wire Line
	9200 3650 9450 3650
$Comp
L power:+5V #PWR0108
U 1 1 5E6AF870
P 9300 3450
F 0 "#PWR0108" H 9300 3300 50  0001 C CNN
F 1 "+5V" H 9315 3623 50  0000 C CNN
F 2 "" H 9300 3450 50  0001 C CNN
F 3 "" H 9300 3450 50  0001 C CNN
	1    9300 3450
	-1   0    0    -1  
$EndComp
Wire Wire Line
	9300 3450 9300 3550
Wire Wire Line
	9300 3550 9450 3550
NoConn ~ 9450 3450
$Comp
L Connector_Generic:Conn_01x02 J11
U 1 1 5E49924E
P 8700 4950
F 0 "J11" V 8572 4762 50  0000 R CNN
F 1 "Conn_01x02" V 8663 4762 50  0000 R CNN
F 2 "Connector_PinHeader_2.54mm:PinHeader_1x02_P2.54mm_Vertical" H 8700 4950 50  0001 C CNN
F 3 "~" H 8700 4950 50  0001 C CNN
	1    8700 4950
	0    1    -1   0   
$EndComp
$Comp
L 2020-02-16_16-52-51:LM317MDT-TR CR1
U 1 1 5E4AEA50
P 3000 1250
F 0 "CR1" H 4700 1500 60  0000 C CNN
F 1 "LM317MDT-TR" H 4650 1400 60  0000 C CNN
F 2 "lm317-to252:LM317MDT-TR" H 4300 1490 60  0001 C CNN
F 3 "" H 3000 1250 60  0000 C CNN
	1    3000 1250
	1    0    0    -1  
$EndComp
Wire Wire Line
	4050 1250 4200 1250
Wire Wire Line
	4200 1250 4200 1300
Connection ~ 4200 1250
Wire Wire Line
	4550 850  4200 850 
Wire Wire Line
	4200 850  4200 1250
Wire Wire Line
	4200 1250 4400 1250
$Comp
L power:+5V #PWR0111
U 1 1 5E633BCC
P 5650 1200
F 0 "#PWR0111" H 5650 1050 50  0001 C CNN
F 1 "+5V" H 5665 1373 50  0000 C CNN
F 2 "" H 5650 1200 50  0001 C CNN
F 3 "" H 5650 1200 50  0001 C CNN
	1    5650 1200
	1    0    0    -1  
$EndComp
$Comp
L Device:CP_Small C9
U 1 1 5E63664D
P 5050 1650
F 0 "C9" H 5138 1696 50  0000 L CNN
F 1 "10uF" H 5138 1605 50  0000 L CNN
F 2 "Capacitor_Tantalum_SMD:CP_EIA-3216-18_Kemet-A" H 5050 1650 50  0001 C CNN
F 3 "~" H 5050 1650 50  0001 C CNN
	1    5050 1650
	1    0    0    -1  
$EndComp
$Comp
L Device:D_Small D6
U 1 1 5E63848A
P 5050 1400
F 0 "D6" V 5004 1468 50  0000 L CNN
F 1 "D_Small" V 5095 1468 50  0000 L CNN
F 2 "Diode_SMD:D_SMA" V 5050 1400 50  0001 C CNN
F 3 "~" V 5050 1400 50  0001 C CNN
	1    5050 1400
	0    1    1    0   
$EndComp
$Comp
L Device:D_Small D5
U 1 1 5E63BE24
P 4650 850
F 0 "D5" H 4650 1055 50  0000 C CNN
F 1 "D_Small" H 4650 964 50  0000 C CNN
F 2 "Diode_SMD:D_SMA" V 4650 850 50  0001 C CNN
F 3 "~" V 4650 850 50  0001 C CNN
	1    4650 850 
	1    0    0    -1  
$EndComp
Wire Wire Line
	4900 1250 5050 1250
Wire Wire Line
	5650 1250 5650 1200
Wire Wire Line
	5550 1250 5550 1300
Connection ~ 5550 1250
Wire Wire Line
	5550 1250 5650 1250
Wire Wire Line
	5300 1250 5300 1300
Connection ~ 5300 1250
Wire Wire Line
	5300 1250 5550 1250
Wire Wire Line
	5050 1250 5050 1300
Connection ~ 5050 1250
Wire Wire Line
	5050 1250 5300 1250
Wire Wire Line
	5050 1500 5050 1550
Wire Wire Line
	5050 1750 4650 1750
Wire Wire Line
	4650 1750 4650 1800
Wire Wire Line
	4650 1750 4200 1750
Wire Wire Line
	4200 1750 4200 1500
Connection ~ 4650 1750
Wire Wire Line
	5050 1500 5300 1500
Connection ~ 5050 1500
Wire Wire Line
	5550 1500 5550 1750
Wire Wire Line
	5550 1750 5050 1750
Connection ~ 5050 1750
Wire Wire Line
	5050 1500 4650 1500
Wire Wire Line
	4650 1550 4650 1500
Connection ~ 4650 1500
$Comp
L Device:R_Small R9
U 1 1 5E60CAB8
P 5300 1400
F 0 "R9" V 5104 1400 50  0000 C CNN
F 1 "240" V 5195 1400 50  0000 C CNN
F 2 "Resistor_SMD:R_0805_2012Metric" H 5300 1400 50  0001 C CNN
F 3 "~" H 5300 1400 50  0001 C CNN
	1    5300 1400
	-1   0    0    1   
$EndComp
$Comp
L Device:R_Small R8
U 1 1 5E6B071F
P 4650 1650
F 0 "R8" V 4454 1650 50  0000 C CNN
F 1 "720" V 4545 1650 50  0000 C CNN
F 2 "Resistor_SMD:R_0805_2012Metric" H 4650 1650 50  0001 C CNN
F 3 "~" H 4650 1650 50  0001 C CNN
	1    4650 1650
	-1   0    0    1   
$EndComp
Wire Wire Line
	4750 850  5050 850 
Wire Wire Line
	5050 850  5050 1250
$Comp
L Device:C_Small C13
U 1 1 5E4BEC35
P 5550 1400
F 0 "C13" H 5700 1450 50  0000 C CNN
F 1 "1uF" H 5700 1350 50  0000 C CNN
F 2 "Capacitor_SMD:C_0805_2012Metric" H 5550 1400 50  0001 C CNN
F 3 "~" H 5550 1400 50  0001 C CNN
	1    5550 1400
	-1   0    0    1   
$EndComp
$Comp
L Connector_Generic:Conn_01x02 J12
U 1 1 5E4EE1F0
P 8500 5850
F 0 "J12" V 8372 5662 50  0000 R CNN
F 1 "Conn_01x02" V 8463 5662 50  0000 R CNN
F 2 "Connector_PinHeader_2.54mm:PinHeader_1x02_P2.54mm_Vertical" H 8500 5850 50  0001 C CNN
F 3 "~" H 8500 5850 50  0001 C CNN
	1    8500 5850
	0    -1   1    0   
$EndComp
$Comp
L power:+5V #PWR0109
U 1 1 5E4EE636
P 8500 5650
F 0 "#PWR0109" H 8500 5500 50  0001 C CNN
F 1 "+5V" H 8515 5823 50  0000 C CNN
F 2 "" H 8500 5650 50  0001 C CNN
F 3 "" H 8500 5650 50  0001 C CNN
	1    8500 5650
	1    0    0    -1  
$EndComp
$Comp
L power:+5V #PWR0110
U 1 1 5E4EEA69
P 8600 5650
F 0 "#PWR0110" H 8600 5500 50  0001 C CNN
F 1 "+5V" H 8615 5823 50  0000 C CNN
F 2 "" H 8600 5650 50  0001 C CNN
F 3 "" H 8600 5650 50  0001 C CNN
	1    8600 5650
	1    0    0    -1  
$EndComp
$Comp
L power:GND #PWR0112
U 1 1 5E528401
P 8600 5150
F 0 "#PWR0112" H 8600 4900 50  0001 C CNN
F 1 "GND" H 8605 4977 50  0000 C CNN
F 2 "" H 8600 5150 50  0001 C CNN
F 3 "" H 8600 5150 50  0001 C CNN
	1    8600 5150
	1    0    0    -1  
$EndComp
$Comp
L power:GND #PWR?
U 1 1 5E857026
P 7700 5700
F 0 "#PWR?" H 7700 5450 50  0001 C CNN
F 1 "GND" H 7705 5527 50  0000 C CNN
F 2 "" H 7700 5700 50  0001 C CNN
F 3 "" H 7700 5700 50  0001 C CNN
	1    7700 5700
	1    0    0    -1  
$EndComp
$EndSCHEMATC
